[
  {"handName":"Fingerbang",
   "animated":true,
   "filePath":"resources/Justin/Fingerbang/",
   "frameDelay":5
  },
  {"handName":"Middle Finger",
   "animated":false,
   "filePath":"resources/Justin/character_hand_fingerbang_1.png"
 }

]