[
  {
	"hatName": "Goggles",
    "filePathHat": "resources/Rob/character_hat_goggles.png"
  },
  {
	"hatName": "Sunglasses",
    "filePathHat": "resources/Rob/character_hat_sunglasses.png"
  },  
  {
	"hatName": "Hair",
    "filePathHat": "resources/Rob/character_hat_hair.png"
  }
]